{
	"name": "Device Description",
	"description": "A description on the operation of the device",
	"icon": "book",
	"ngModules": [
		"myapp.deviceDescription"
	],
	"js": [
		"index.js",
		"controllers/deviceDescription.js"
	]
}